[ 
  {
    "isRequired": true,
    "name": "Version",
    "title": "Version Information",
    "value": "Will Ferguson 2019-11-26"
  },
  {
    "isRequired": true,
    "name": "sourceName",
    "title": "Source Name",
    "value": "TandaData"
  },
  {
    "isRequired": true,
    "name": "salesHeaderItemName",
    "title": "Timesheets",
	"value": "Timesheets/Current"
  },
  {
    "isRequired": true,
    "name": "salesLineItemsItemName",
    "title": "Shifts",
    "value": "Shifts"
  },
  {
    "isRequired": true,
    "name": "baseUrl",
    "title": "Base URL",
    "value": "https://my.tanda.co/api/v2"
  },
  {
    "isRequired": true,
    "name": "personalToken",
    "title": "Personal Token",
    "value": "ecf6f9fd630ab0c754b07644ec2418f846dc72675c61309c88c444b392df9f1e"
  },
  {
    "isRequired": true,
    "name": "itemDefinitions",
    "title": "Item Definitions",
    "type": "Text",
    "value": 
	[
	  {
        "name": "Locations",
        "isEnabled": true,
        "pathToCollection": "",
        "relativeUrl": "locations",
        "incrementalProcessType": null,
        "incrementalDataColumnNames": null,
        "arrayValueHandling": "Ignore",
        "arrayValueHandlingDelimiter": ";",
        "objectValueHandling": "Split",
        "columnNameDelimiter": "_"
      },
	  {
        "name": "Users",
        "isEnabled": true,
        "pathToCollection": "",
        "relativeUrl": "users",
        "incrementalProcessType": null,
        "incrementalDataColumnNames": null,
        "arrayValueHandling": "Ignore",
        "arrayValueHandlingDelimiter": ";",
        "objectValueHandling": "Split",
        "columnNameDelimiter": "_"
      },	  
	  {
        "name": "TimeSheets",
        "isEnabled": true,
        "pathToCollection": "",
        "relativeUrl": "timesheets/current?show_costs=true",
        "incrementalProcessType": "ByKey",
        "incrementalDataColumnNames": ["id"],
        "arrayValueHandling": "ignore",
        "arrayValueHandlingDelimiter": ";",
        "objectValueHandling": "Split",
        "columnNameDelimiter": "_"
      }
	
	  
   ]
 }
]